<svg width="360px" height="360px" viewBox="0 0 360 360" version="1.1" xmlns="http://www.w3.org/2000/svg" xmlns:xlink="http://www.w3.org/1999/xlink">
    <!-- Generator: Sketch 51.1 (57501) - http://www.bohemiancoding.com/sketch -->
    <desc>Created with Sketch.</desc>
    <defs>
        <rect id="path-1" x="0" y="0" width="360" height="360"></rect>
    </defs>
    <g id="Website" stroke="none" stroke-width="1" fill="none" fill-rule="evenodd">
        <g id="Homepage" transform="translate(-180.000000, -3220.000000)">
            <g id="Managers" transform="translate(0.000000, 3040.000000)">
                <g id="Blocks">
                    <g id="Group-2" transform="translate(180.000000, 180.000000)">
                        <mask id="mask-2" fill="white">
                            <use xlink:href="#path-1"></use>
                        </mask>
                        <use id="Block" fill="#00D7C7" xlink:href="#path-1"></use>
                        <g id="box2-5" mask="url(#mask-2)" stroke="#FFFFFF" stroke-width="2">
                            <g transform="translate(24.000000, 1.000000)" id="Shape">
                                <polygon points="311.866295 191.768802 311.866295 90.0139276 155.937062 0 0 90.0139276 0 191.768802 155.937062 281.78273"></polygon>
                                <path d="M156.437326,0 L156.437326,360"></path>
                            </g>
                        </g>
                    </g>
                </g>
            </g>
        </g>
    </g>
</svg>
